{
    "name": "Auth",
    "alias": "auth",
    "description": "",
    "keywords": [],
    "priority": 0,
    "providers": [
        "Modules\\Auth\\Providers\\AuthServiceProvider",
        "Modules\\Auth\\Providers\\RepositoryServiceProvider"

    ],
    "aliases": {},
    "files": [],
    "requires": []
}
